{
	"cur":{
		"iso":"AFN",
		"sym":"؋"
	},
	"phn":{
		"code":"93",
		"reg":"[(]?(\\d{3})[)]?[ \\.-]?(\\d{3})[ \\.-]?(\\d{4})",
		"frm":"a-b-c"
	},
	"postal":{
		"reg":"([0-9]{4})"
	},
	"weekstart":"sat"
}
