{
	"cur":{
		"iso":"AZN",
		"sym":"₼"
	},
	"phn":{
		"code":"994",
		"reg":"",
		"frm":""
	},
	"postal":{
		"cityline":"##p## ##t##",
		"pre":"AZ",
		"reg":"[AZ -]?([0-9]{4})+",
		"frm":"pa"
	},
	"weekstart":"mon"
}
