{
	"cur":{
		"iso":"CZK",
		"sym":"Kč"
	},
	"dte":{
		"dte":"##j##. ##m##. ##Y##",
		"dte_long":"##j##. ##M## ##Y##",
		"tme":"##G##.##i##"
	},
	"phn":{
		"code":"420",
		"reg":"",
		"frm":""
	},
	"postal":{
		"lbl":"PSČ",
		"reg":"([0-9]{3})+[ ]?([0-9]{2})+"
	},
	"weekstart":"mon"
}
