{
	"cur":{
		"iso":"HUF",
		"sym":"Ft"
	},
	"dte":{
		"dte":"##Y##. ##m##. ##d##.",
		"dte_long":"##Y##. ##M## ##d##.",
		"tme":"##g##.##i##"
	},
	"phn":{
		"code":"36",
		"reg":"",
		"frm":""
	},
	"postal":{
		"reg":"([0-9]{4})+"
	},
	"weekstart":"mon"
}
