{
	"cur":{
		"iso":"GBP",
		"sym":"£"
	},
	"phn":{
		"code":"44",
		"reg":"",
		"frm":""
	},
	"postal":{
		"reg":"([ABCEGHJKLMNPRSTVXY]\\d[ABCEGHJ-NPRSTV-Z])+[ -]?(\\d[ABCEGHJ-NPRSTV-Z]\\d)+",
		"frm":"a b"
	},
	"weekstart":"mon"
}
