{
	"cur":{
		"iso":"INR",
		"sym":"₹"
	},
	"dte":{
		"dte":"##d##-##m##-##y##",
		"tme":"##g##:##i##",
		"tme_sec":"##g##:##i##:##s##",
		"tme_mde":"12"
	},
	"phn":{
		"code":"91",
		"reg":"",
		"frm":""
	},
	"postal":{
		"cityline":"##p##_##t##",
		"lbl":"PIN",
		"reg":"([0-9]{3})+[ -]?([0-9]{3})+",
		"frm":"ab"
	},
	"weekstart":"mon"
}
