{
	"cur":{
		"iso":"EUR",
		"sym":"€"
	},
	"dte":{
		"dte":"##j##/##n##/##Y##",
		"tme":"##G##.##i##"
	},
	"phn":{
		"code":"34",
		"reg":"",
		"frm":""
	},
	"postal":{
		"cityline":"##p## ##t## (##S##)",
		"lbl":"CAP",
		"reg":"(IT-|I-)?([0-9]){5}",
		"frm":"ab"
	},
	"prov":{
		"lbl":"State",
		"list":{
			"C":{
				"it":{"n":"A Coruña"}
			},
			"AL":{
				"it":{"n":"Alessandria"}
			},
			"AN":{
				"it":{"n":"Ancona"}
			},
			"AR":{
				"it":{"n":"Arezzo"}
			},
			"AP":{
				"it":{"n":"Ascoli Piceno"}
			},
			"AT":{
				"it":{"n":"Asti"}
			},
			"AV":{
				"it":{"n":"Avellino"}
			},
			"BT":{
				"it":{"n":"Barletta-Andria-Trani"}
			},
			"BL":{
				"it":{"n":"Belluno"}
			},
			"BN":{
				"it":{"n":"Benevento"}
			},
			"BG":{
				"it":{"n":"Bergamo"}
			},
			"BI":{
				"it":{"n":"Biella"}
			},
			"BS":{
				"it":{"n":"Brescia"}
			},
			"BR":{
				"it":{"n":"Brindisi"}
			},
			"CB":{
				"it":{"n":"Campobasso"}
			},
			"CE":{
				"it":{"n":"Caserta"}
			},
			"CZ":{
				"it":{"n":"Catanzaro"}
			},
			"CH":{
				"it":{"n":"Chieti"}
			},
			"CO":{
				"it":{"n":"Como"}
			},
			"CS":{
				"it":{"n":"Cosenza"}
			},
			"CR":{
				"it":{"n":"Cremona"}
			},
			"KR":{
				"it":{"n":"Crotone"}
			},
			"CN":{
				"it":{"n":"Cuneo"}
			},
			"FM":{
				"it":{"n":"Fermo"}
			},
			"FE":{
				"it":{"n":"Ferrara"}
			},
			"FG":{
				"it":{"n":"Foggia"}
			},
			"FC":{
				"it":{"n":"Forlì-Cesena"}
			},
			"FR":{
				"it":{"n":"Frosinone"}
			},
			"GR":{
				"it":{"n":"Grosseto"}
			},
			"IM":{
				"it":{"n":"Imperia"}
			},
			"IS":{
				"it":{"n":"Isernia"}
			},
			"SP":{
				"it":{"n":"La Spezia"}
			},
			"AQ":{
				"it":{"n":"L'Aquila"}
			},
			"LT":{
				"it":{"n":"Latina"}
			},
			"LE":{
				"it":{"n":"Lecce"}
			},
			"LC":{
				"it":{"n":"Lecco"}
			},
			"LI":{
				"it":{"n":"Livorno"}
			},
			"LO":{
				"it":{"n":"Lodi"}
			},
			"LU":{
				"it":{"n":"Lucca"}
			},
			"MC":{
				"it":{"n":"Macerata"}
			},
			"MN":{
				"it":{"n":"Mantova"}
			},
			"MS":{
				"it":{"n":"Massa-Carrara"}
			},
			"MT":{
				"it":{"n":"Matera"}
			},
			"MO":{
				"it":{"n":"Modena"}
			},
			"MB":{
				"it":{"n":"Monza e Brianza"}
			},
			"NO":{
				"it":{"n":"Novara"}
			},
			"NU":{
				"it":{"n":"Nuoro"}
			},
			"OR":{
				"it":{"n":"Oristano"}
			},
			"PD":{
				"it":{"n":"Padova"}
			},
			"PR":{
				"it":{"n":"Parma"}
			},
			"PV":{
				"it":{"n":"Pavia"}
			},
			"PG":{
				"it":{"n":"Perugia"}
			},
			"PU":{
				"it":{"n":"Pesaro e Urbino"}
			},
			"PE":{
				"it":{"n":"Pescara"}
			},
			"PC":{
				"it":{"n":"Piacenza"}
			},
			"PI":{
				"it":{"n":"Pisa"}
			},
			"PT":{
				"it":{"n":"Pistoia"}
			},
			"PZ":{
				"it":{"n":"Potenza"}
			},
			"PO":{
				"it":{"n":"Prato"}
			},
			"RA":{
				"it":{"n":"Ravenna"}
			},
			"RE":{
				"it":{"n":"Reggio Emilia"}
			},
			"RI":{
				"it":{"n":"Rieti"}
			},
			"RN":{
				"it":{"n":"Rimini"}
			},
			"RO":{
				"it":{"n":"Rovigo"}
			},
			"SA":{
				"it":{"n":"Salerno"}
			},
			"SS":{
				"it":{"n":"Sassari"}
			},
			"SV":{
				"it":{"n":"Savona"}
			},
			"SI":{
				"it":{"n":"Siena"}
			},
			"SO":{
				"it":{"n":"Sondrio"}
			},
			"SU":{
				"it":{"n":"Sud Sardegna"}
			},
			"TA":{
				"it":{"n":"Taranto"}
			},
			"TE":{
				"it":{"n":"Teramo"}
			},
			"TR":{
				"it":{"n":"Terni"}
			},
			"TV":{
				"it":{"n":"Treviso"}
			},
			"VA":{
				"it":{"n":"Varese"}
			},
			"VB":{
				"it":{"n":"Verbano-Cusio-Ossola"}
			},
			"VC":{
				"it":{"n":"Vercelli"}
			},
			"VR":{
				"it":{"n":"Verona"}
			},
			"VV":{
				"it":{"n":"Vibo Valentia"}
			},
			"VI":{
				"it":{"n":"Vicenza"}
			},
			"VT":{
				"it":{"n":"Viterbo"}
			}
		}
	},
	"weekstart":"mon"
}
