{
	"cur":{
		"iso":"PHP",
		"sym":"₱"
	},
	"dte":{
		"dte":"##j##/##m##/##Y##",
		"tme":"##g##:##i##",
		"tme_sec":"##g##:##i##:##s##",
		"tme_mde":"12",
		"tme_am":"##t## a.m.",
		"tme_pm":"##t## p.m."
	},
	"phn":{
		"code":"63",
		"reg":"",
		"frm":""
	},
	"postal":{
		"reg":"([0-9]{4})+"
	},
	"weekstart":"sun"
}
