{
	"cur":{
		"iso":"NOK",
		"sym":"kr"
	},
	"dte":{
		"dte":"##j##.##m##.##Y##",
		"dte_long":"##j##. ##M## ##Y##"
	},
	"phn":{
		"code":"47",
		"reg":"",
		"frm":""
	},
	"postal":{
		"cityline":"##p## ##t##",
		"reg":"([0-9]{4})+"
	}
}
