{
	"AED":{
		"lbl":"dirham",
		"sym":"د.إ"
	},
	"AFN":{
		"lbl":"Afghan afghani",
		"sym":""
	},
	"ALL":{
		"lbl":"Albanian lek",
		"sym":""
	},
	"AMD":{
		"lbl":"Armenian dram",
		"sym":""
	},
	"ANG":{
		"lbl":"Netherlands Antillean guilder",
		"sym":""
	},
	"AOA":{
		"lbl":"Angolan kwanza",
		"sym":""
	},
	"ARS":{
		"lbl":"Argentine peso",
		"sym":""
	},
	"AUD":{
		"lbl":"Australian dollar",
		"sym":""
	},
	"AWG":{
		"lbl":"Aruban florin",
		"sym":""
	},
	"AZN":{
		"lbl":"Azerbaijani manat",
		"sym":""
	},
	"BAM":{
		"lbl":"Bosnia and Herzegovina convertible mark",
		"sym":""
	},
	"BBD":{
		"lbl":"Barbados dollar",
		"sym":""
	},
	"BDT":{
		"lbl":"Bangladeshi taka",
		"sym":""
	},
	"BGN":{
		"lbl":"Bulgarian lev",
		"sym":""
	},
	"BHD":{
		"lbl":"Bahraini dinar",
		"sym":""
	},
	"BIF":{
		"lbl":"Burundian franc",
		"sym":""
	},
	"BMD":{
		"lbl":"Bermudian dollar",
		"sym":""
	},
	"BND":{
		"lbl":"Brunei dollar",
		"sym":""
	},
	"BOB":{
		"lbl":"Boliviano",
		"sym":""
	},
	"BRL":{
		"lbl":"Brazilian real",
		"sym":""
	},
	"BSD":{
		"lbl":"Bahamian dollar",
		"sym":""
	},
	"BTN":{
		"lbl":"Bhutanese ngultrum",
		"sym":""
	},
	"BWP":{
		"lbl":"Botswana pula",
		"sym":""
	},
	"BYN":{
		"lbl":"New Belarusian ruble",
		"sym":""
	},
	"BYR":{
		"lbl":"Belarusian ruble",
		"sym":""
	},
	"BZD":{
		"lbl":"Belize dollar",
		"sym":""
	},
	"CAD":{
		"lbl":"Canadian dollar",
		"sym":""
	},
	"CDF":{
		"lbl":"Congolese franc",
		"sym":""
	},
	"CHF":{
		"lbl":"Swiss franc",
		"sym":""
	},
	"CLF":{
		"lbl":"Unidad de Fomento",
		"sym":""
	},
	"CLP":{
		"lbl":"Chilean peso",
		"sym":""
	},
	"CNY":{
		"lbl":"Renminbi|Chinese yuan",
		"sym":""
	},
	"COP":{
		"lbl":"Colombian peso",
		"sym":""
	},
	"CRC":{
		"lbl":"Costa Rican colon",
		"sym":""
	},
	"CUC":{
		"lbl":"Cuban convertible peso",
		"sym":""
	},
	"CUP":{
		"lbl":"Cuban peso",
		"sym":""
	},
	"CVE":{
		"lbl":"Cape Verde escudo",
		"sym":""
	},
	"CZK":{
		"lbl":"Czech koruna",
		"sym":""
	},
	"DJF":{
		"lbl":"Djiboutian franc",
		"sym":""
	},
	"DKK":{
		"lbl":"Danish krone",
		"sym":""
	},
	"DOP":{
		"lbl":"Dominican peso",
		"sym":""
	},
	"DZD":{
		"lbl":"Algerian dinar",
		"sym":""
	},
	"EGP":{
		"lbl":"Egyptian pound",
		"sym":""
	},
	"ERN":{
		"lbl":"Eritrean nakfa",
		"sym":""
	},
	"ETB":{
		"lbl":"Ethiopian birr",
		"sym":""
	},
	"EUR":{
		"lbl":"Euro",
		"sym":"€"
	},
	"FJD":{
		"lbl":"Fiji dollar",
		"sym":""
	},
	"FKP":{
		"lbl":"Falkland Islands pound",
		"sym":""
	},
	"GBP":{
		"lbl":"Pound sterling",
		"sym":""
	},
	"GEL":{
		"lbl":"Georgian lari",
		"sym":""
	},
	"GHS":{
		"lbl":"Ghanaian cedi",
		"sym":""
	},
	"GIP":{
		"lbl":"Gibraltar pound",
		"sym":""
	},
	"GMD":{
		"lbl":"Gambian dalasi",
		"sym":""
	},
	"GNF":{
		"lbl":"Guinean franc",
		"sym":""
	},
	"GTQ":{
		"lbl":"Guatemalan quetzal",
		"sym":""
	},
	"GYD":{
		"lbl":"Guyanese dollar",
		"sym":""
	},
	"HKD":{
		"lbl":"Hong Kong dollar",
		"sym":""
	},
	"HNL":{
		"lbl":"Honduran lempira",
		"sym":""
	},
	"HRK":{
		"lbl":"Croatian kuna",
		"sym":""
	},
	"HTG":{
		"lbl":"Haitian gourde",
		"sym":""
	},
	"HUF":{
		"lbl":"Hungarian forint",
		"sym":""
	},
	"IDR":{
		"lbl":"Indonesian rupiah",
		"sym":""
	},
	"ILS":{
		"lbl":"Israeli new shekel",
		"sym":""
	},
	"INR":{
		"lbl":"Indian rupee",
		"sym":""
	},
	"IQD":{
		"lbl":"Iraqi dinar",
		"sym":""
	},
	"IRR":{
		"lbl":"Iranian rial",
		"sym":""
	},
	"ISK":{
		"lbl":"Icelandic króna",
		"sym":""
	},
	"JMD":{
		"lbl":"Jamaican dollar",
		"sym":""
	},
	"JOD":{
		"lbl":"Jordanian dinar",
		"sym":""
	},
	"JPY":{
		"lbl":"Japanese yen",
		"sym":""
	},
	"KES":{
		"lbl":"Kenyan shilling",
		"sym":""
	},
	"KGS":{
		"lbl":"Kyrgyzstani som",
		"sym":""
	},
	"KHR":{
		"lbl":"Cambodian riel",
		"sym":""
	},
	"KMF":{
		"lbl":"Comoro franc",
		"sym":""
	},
	"KPW":{
		"lbl":"North Korean won",
		"sym":""
	},
	"KRW":{
		"lbl":"South Korean won",
		"sym":""
	},
	"KWD":{
		"lbl":"Kuwaiti dinar",
		"sym":""
	},
	"KYD":{
		"lbl":"Cayman Islands dollar",
		"sym":""
	},
	"KZT":{
		"lbl":"Kazakhstani tenge",
		"sym":""
	},
	"LAK":{
		"lbl":"Lao kip",
		"sym":""
	},
	"LBP":{
		"lbl":"Lebanese pound",
		"sym":""
	},
	"LKR":{
		"lbl":"Sri Lankan rupee",
		"sym":""
	},
	"LRD":{
		"lbl":"Liberian dollar",
		"sym":""
	},
	"LSL":{
		"lbl":"Lesotho loti",
		"sym":""
	},
	"LYD":{
		"lbl":"Libyan dinar",
		"sym":""
	},
	"MAD":{
		"lbl":"Moroccan dirham",
		"sym":""
	},
	"MDL":{
		"lbl":"Moldovan leu",
		"sym":""
	},
	"MGA":{
		"lbl":"Malagasy ariary",
		"sym":""
	},
	"MKD":{
		"lbl":"Macedonian denar",
		"sym":""
	},
	"MMK":{
		"lbl":"Myanmar kyat",
		"sym":""
	},
	"MNT":{
		"lbl":"Mongolian tögrög",
		"sym":""
	},
	"MOP":{
		"lbl":"Macanese pataca",
		"sym":""
	},
	"MRO":{
		"lbl":"Mauritanian ouguiya",
		"sym":""
	},
	"MUR":{
		"lbl":"Mauritian rupee",
		"sym":""
	},
	"MVR":{
		"lbl":"Maldivian rufiyaa",
		"sym":""
	},
	"MWK":{
		"lbl":"Malawian kwacha",
		"sym":""
	},
	"MXN":{
		"lbl":"Mexican peso",
		"sym":""
	},
	"MXV":{
		"lbl":"Mexican Unidad de Inversion",
		"sym":""
	},
	"MYR":{
		"lbl":"Malaysian ringgit",
		"sym":""
	},
	"MZN":{
		"lbl":"Mozambican metical",
		"sym":""
	},
	"NAD":{
		"lbl":"Namibian dollar",
		"sym":""
	},
	"NGN":{
		"lbl":"Nigerian naira",
		"sym":""
	},
	"NIO":{
		"lbl":"Nicaraguan córdoba",
		"sym":""
	},
	"NOK":{
		"lbl":"Norwegian krone",
		"sym":""
	},
	"NPR":{
		"lbl":"Nepalese rupee",
		"sym":""
	},
	"NZD":{
		"lbl":"New Zealand dollar",
		"sym":""
	},
	"OMR":{
		"lbl":"Omani rial",
		"sym":""
	},
	"PAB":{
		"lbl":"Panamanian balboa",
		"sym":""
	},
	"PEN":{
		"lbl":"Peruvian Sol",
		"sym":""
	},
	"PGK":{
		"lbl":"Papua New Guinean kina",
		"sym":""
	},
	"PHP":{
		"lbl":"Philippine peso",
		"sym":""
	},
	"PKR":{
		"lbl":"Pakistani rupee",
		"sym":""
	},
	"PLN":{
		"lbl":"Polish złoty",
		"sym":""
	},
	"PYG":{
		"lbl":"Paraguayan guaraní",
		"sym":""
	},
	"QAR":{
		"lbl":"Qatari riyal",
		"sym":""
	},
	"RON":{
		"lbl":"Romanian leu",
		"sym":""
	},
	"RSD":{
		"lbl":"Serbian dinar",
		"sym":""
	},
	"RUB":{
		"lbl":"Russian ruble",
		"sym":""
	},
	"RWF":{
		"lbl":"Rwandan franc",
		"sym":""
	},
	"SAR":{
		"lbl":"Saudi riyal",
		"sym":""
	},
	"SBD":{
		"lbl":"Solomon Islands dollar",
		"sym":""
	},
	"SCR":{
		"lbl":"Seychelles rupee",
		"sym":""
	},
	"SDG":{
		"lbl":"Sudanese pound",
		"sym":""
	},
	"SEK":{
		"lbl":"Swedish krona",
		"sym":""
	},
	"SGD":{
		"lbl":"Singapore dollar",
		"sym":""
	},
	"SHP":{
		"lbl":"Saint Helena pound",
		"sym":""
	},
	"SLL":{
		"lbl":"Sierra Leonean leone",
		"sym":""
	},
	"SOS":{
		"lbl":"Somali shilling",
		"sym":""
	},
	"SRD":{
		"lbl":"Surinamese dollar",
		"sym":""
	},
	"SSP":{
		"lbl":"South Sudanese pound",
		"sym":""
	},
	"STD":{
		"lbl":"São Tomé and Príncipe dobra",
		"sym":""
	},
	"SVC":{
		"lbl":"Salvadoran colón",
		"sym":""
	},
	"SYP":{
		"lbl":"Syrian pound",
		"sym":""
	},
	"SZL":{
		"lbl":"Swazi lilangeni",
		"sym":""
	},
	"THB":{
		"lbl":"Thai baht",
		"sym":""
	},
	"TJS":{
		"lbl":"Tajikistani somoni",
		"sym":""
	},
	"TMT":{
		"lbl":"Turkmenistani manat",
		"sym":""
	},
	"TND":{
		"lbl":"Tunisian dinar",
		"sym":""
	},
	"TOP":{
		"lbl":"Tongan paʻanga",
		"sym":""
	},
	"TRY":{
		"lbl":"Turkish lira",
		"sym":""
	},
	"TTD":{
		"lbl":"Trinidad and Tobago dollar",
		"sym":""
	},
	"TWD":{
		"lbl":"New Taiwan dollar",
		"sym":""
	},
	"TZS":{
		"lbl":"Tanzanian shilling",
		"sym":""
	},
	"UAH":{
		"lbl":"Ukrainian hryvnia",
		"sym":""
	},
	"UGX":{
		"lbl":"Ugandan shilling",
		"sym":""
	},
	"USD":{
		"lbl":"United States dollar",
		"sym":""
	},
	"UYI":{
		"lbl":"Uruguay Peso en Unidades Indexadas",
		"sym":""
	},
	"UYU":{
		"lbl":"Uruguayan peso",
		"sym":""
	},
	"UZS":{
		"lbl":"Uzbekistan som",
		"sym":""
	},
	"VEF":{
		"lbl":"Venezuelan bolívar",
		"sym":""
	},
	"VND":{
		"lbl":"Vietnamese đồng",
		"sym":""
	},
	"VUV":{
		"lbl":"Vanuatu vatu",
		"sym":""
	},
	"WST":{
		"lbl":"Samoan tala",
		"sym":""
	},
	"XAF":{
		"lbl":"Central African CFA franc",
		"sym":""
	},
	"XCD":{
		"lbl":"East Caribbean dollar",
		"sym":""
	},
	"XOF":{
		"lbl":"West African CFA franc",
		"sym":""
	},
	"XPF":{
		"lbl":"CFP franc",
		"sym":""
	},
	"YER":{
		"lbl":"Yemeni rial",
		"sym":""
	},
	"ZAR":{
		"lbl":"South African rand",
		"sym":""
	},
	"ZMW":{
		"lbl":"Zambian kwacha",
		"sym":""
	},
	"ZWL":{
		"lbl":"Zimbabwean dollar",
		"sym":""
	}
}
