{
	"water":{},
	"land":{
		"GB": {
			"pts":{},
			"map":"M467.6 295.65l-.23.15-.08.17-.05.07-.16.05h-.15l-.58-.35-.13.01.13-.16.36-.13.2-.18.47.17.22.2zm-8.7-11.86l.1.09.3-.02-.1.2-.32.2-.21.22-.27.17-.13-.2-.14.01-.23-.4-.04-.58.3-.15.4.01.33.45zm-6.06-9.13l.4.13h.28l.26.35.14.55.33.55.42.48.02.29-.15.16-.32.19v.2l.21-.1.18-.05.44.05.15.21.1.31.06.26-.04.28-.11-.09-.12-.25-.13-.11-.16-.07.07.35-.02.46.06.04h.2l-.13.48-.28.12-.33.05-.08.17-.06.2-.17.33-.23.18-.28-.04-.27-.14-.24-.03-.16.08-.1.08-.11-.01-.3.02h-.29l-.04-.12.05-.38-.06-.1-.27-.05-.1-.09-.16-.26-.03-.12-.02-.17-.16-.21-.2-.15-.12-.01-.23.25-.2.25.08.13.06.17-.1.12-.32.28-.05.1-.09.06-.15-.08-.37.02-.18-.05-.2-.2-.49-.13-.07-.33-.1-.06-.56-.56-.07-.19.07-.11.2-.17.7-.28.11-.11.02-.1-.2-.12-.19-.13-.06-.08v-.07l.1-.1h.2l.17.04.14-.08.23-.09.15-.1.14-.28.14-.25.02-.13.12-.48.07-.12.44-.3.1.16.22.04.2-.15.23-.5.16-.03.18.04.35-.06.62-.23h.28zm3.53-1H456l-.12-.04-.15-.12-.17-.68.06-.23.07-.12.07-.1.19-.03.19.13.06.12.16.45.02.4-.02.21zm-2.85-2.38l.1.64.1.39v.13l-.09.2-.45.24h-.15v-.06l.1-.25-.1-.29.05-.22-.04-.04-.09.03-.33.35-.1.03-.02-.07.08-.28.01-.2.05-.11.1-.11.1-.08.08-.02.1.09.26-.24.24-.13zm.44.58l-.06.05-.14-.01-.05-.08-.03-.13v-.22l.08-.16.36-.25-.16-.08v-.07l.09-.2.38-.31.1-.06h.11l-.2.57-.48.95zm.54-2.64l-1.1.28-.39-.02-.04-.14.08-.1.31-.08.13-.67-.48-.31-.02-.09.04-.14.05-.07.3-.16.11-.03.1.02.2.18.24.38.3.06.21.16-.04.73zm-2.31-1.2l-.16.02-.01-.07.27-.34.18-.06.06.04-.13.2-.21.2zm-2.25-1.93l-.25.07-.09-.04-.01-.07.05-.17.19-.07.14.1.02.09-.05.09zm3.16 0l-.08.07-.1-.02-.1-.08-.14-.24.3-.17.13.1.04.11v.13l-.05.1zm-2.7-.77l-.11.03-.16-.03-.1-.08-.09-.3-.02-.2.04-.35v-.43l.3-.01.09.06.06 1.26v.05zm3.08-2v.23l-.06.27.07.28.01.2.12.07.07.1.52.1.48-.03.1.08.01.14-.08.14-.27.27-.33.43-.1.08h-.1l-.08-.03-.06-.76-.35.1-.29-.01-.15-.1-.11-.18-.23-.46-.65-.18-.18-.26-.05-.15.02-.09.13-.19.17.07.1-.04.07-.09v-.07l-.1-.16v-.05l.67-.21.06-.33.14-.03.17.1.22.35.06.41zm-2.95-.92l.31.3-.25.48h-.38l-.54-.36v-.07l.04-.1.08-.1.08-.01.14.06.19-.1.14.03.19-.13zm2.8-3.56l-.36.92-.14.02-.12.23-.38.25h.33l.1.09v.18l-.07.1-.42.42-.3.16-.3.44h-.17l-.15.28-.13.12h-.07l-.09-.06-.2-.27.36-.27.03-.15.25-.15-.02-.05-.39-.22-.15-.15.02-.08.18-.17-.09-.02-.05-.1-.11-.03-.03-.08-.02-.23.02-.23.12-.1.04-.1.05-.04.17.06.18.18.2-.07.24.03v-.04l-.17-.45.03-.1.1-.1.55-.33.69-.55.16-.08.05.07.07.29-.01.38zm8.58-.81l.03.43-.04.14-.06.16-.21.3-.55.43-1.02.99-.6.48-.08.24-.04.32.35.07.14.1-.08.17-.53.57-.16.52.4-.02.34-.1.67-.32.63-.24.3-.01.59.19h.13l.25-.08.25-.02 1.7.06.48-.11.3.13.27.34.25.6-.01.11-.15.28-.28.35-.23.48-.07.26-.05.28-.07.26-.48 1.22-.46.67-.2.47-.26.38-.25.24-.26.16-.76.17-.21.12-.25.2-.27.1h.31l.31-.12.56-.04.65.4-.06.32-.26.25-.6.04-.55.57-.25.17-.26.09-.33-.02-.6-.16-.26-.15.23.26.28.13 1.55.32.1-.04.49-.33h.66l1.26.61.36.47.52.67.28.26.2.24.13.35.24 1.17.28 1.13.36 1.22.17.34.21.23 1.1.54.25.18.43.52.4.55.39.43.41.34-.2.18-.13.27.1.38.16.36.34.57.29.63-.1-.1-.12-.05-.16.02-.14-.03-.28-.2-.27-.24-.53.1-.3-.04h-.25l.48.14.53.01 1.17 1.05.4.62.24.81-.16.37-.25.23-.23.27-.22.3.65.45.14-.01.14-.07.14-.15.23-.37.12-.13.4-.05.35.03.34.08.3-.02.6.16.3.14.77.64.17.35.07.45.01.5-.13.46-.15.4-.09.54-.06.19-.1.14-.4.42-.27.17-.1-.07h-.13l-.01.1.13.22v.25l-.24.19-.24.08-.4-.1-.57.35.4.18.08.2-.1.33-.25.15-.28.06-.3.02-.24.08-.22.16.28-.08.2.07.13.28.11.08.57.12h.35l.67-.07h.32l.12.06v.23l-.05.57-.09.12-.9.47-.18.34-.05.2-.52-.04-.24.22-.43.14-.33.15-.31.19-.27.05-1.13-.22-.7.02-.92.2-.24-.04-.36-.19-.36-.12-.43-.06-.37-.18.23.34-.5.32-.23.06h-.25l-.5.08-.45-.05.07.23.12.2-.1.09-.1.02-.88-.15-.13.03-.1.14-.32-.08-.31-.23-.33-.16-.34-.07-.28.02-1.12.37-.23.37-.11.52-.17.46-.26.36-.32.05-.3-.25-.56-.27-.19-.19h-.06l-.06.06-.23.08h-.22l-.36.08-.61.22-.25.15-.54.41-.1.11-.2.42-.3.07-.26-.26-.31-.1-.33.1-.2.14-.09-.12v-.23l.24-.28.63-.22.56-.55.27-.34.11-.19.13-.12.18-.05.1-.2.76-.86.07-.2.04-.34.06-.34.63-.22.3-.71.09-.06.87-.13.66.01.64.14.33.01.34-.05.26-.19.44-.7.26-.3.28-.28.27-.32.44-.59-.3.2-.35.33-.2.18-.66.2-.28.18-.5.44-.1.03-.74-.1-.56-.56-.36-.23-.14-.03-.16.07-.32.07-.33-.01.17-.26.23-.15-.52-.1-.14-.08-.17-.18-.4-.03-.19.04-.33.24-.51.26-.62-.36-.12-.15v-.3l-.09-.24-.17-.09.22-.3.26-.22.59-.2.88-.5.5-.2.45-.37.2-.22.13-.3.14-.38.2-.3-.2-.07-.08-.23.02-.23.1-.21-.09-.26-.14-.27.01-.21.04-.23-.36.01-.35.07-.32.16-.31.22-.28.04V286l.13-.22.3-.31.34-.26.12-.2.1-.22.16-.18.44-.35.84-.38.13-.03.32.05.33-.06.28-.14.28-.03.64.4-.19-.62.28-.15.4.56.16.06.31-.08-.12-.1h-.14l-.19-.09-.16-.18-.26-.57.01-.35.18-.35.2-.33-.17-.07-.13-.12-.04-.33.05-.3.36-.25.1-.4.05-.43-.06-.2-.36.03-.17.09-.15.12h-.15l-.44-.48-.24-.37-.45-.77-.06-.46.36-1 .54-.64.65-.23-.13-.04-.98-.01-.32.08-.3.26-.17.08-.18.03-.16.13-.16.18-.16.12-.33-.03-.16.04-.12-.1-.09-.18-.13-.04-.14.05-.29.23-.3.14-.36-.15-.48-.27-.09.1-.1.25-.07.4-.33-.34-.29-.47-.1-.29v-.33l.15-.12.17.11.25-.78.5-1.02.18-.3.12-.4-.02-.25-.1-.22-.47-.5v-.4l.05-.46.13-.27.05-.06.62.01-.24-.14-.48-.42.01-.14.11-.39-.05.04-.1.18-.2.43-.12.1-.34.1-.06.21-.06.06-.17.02-.05.2-.04.01-.05-.21v-.35l.06-.33.13-.25.5-.58-.24.18-.55.53-.28.36-.08.11-.02.1v.12l.13.61-.04.29-.47 1.86-.1.19-.08.1-.07.02-.24-.03-.1-.14v-.16l.05-.24.2-.88.08-.25.12-.23.28-.4v-.03l-.2.08-.07-.02-.06-.08.04-1.2.15-.4.05-.58.14-.5.15-.35.11-.47.18-.2.04-.32.2-.35.15-.36-.09.04-.96.93-.24.17-.34-.04-.25-.1-.2-.23-.1-.42-.24-.01-.21-.08v-.05l.27-.24.44-.07.4-.38-.35-.25.03-.08.31-.21.4-.73.08-.66-.19-.32-.07-.2-.38-.23-.06-.3.04-.16.13-.16.18-.13.3-.12-.27-.13-.1-.15-.08-.22v-.13l.14-.57.08-.23.15-.3.73.01.08-.13h.08l.37.12-.05-.14-.6-.71-.06-.14.17-.39.01-.17-.02-.19.05-.14.2-.07.57.01.15-.07-.07-.18-.13-.25-.03-.2.03-.2v-.37l.03-.16.14-.25.12-.07.14-.04.32.08.12.1.14.23.1-.02.4-.25.12-.04.16.3.69-.24.91-.1.55-.16.58-.05.54-.18.57.08.02.1-.03.15-.15.38zm.5-1.2l-.02.01-.1-.1-.17-.35.27-.07.12.04-.05.15-.04.31zm-.65-.29l-.16.07h-.15l-.25-.31-.1-.23.02-.15.1-.05.24.07.13.26.01.17.03.07.15.06-.02.04zm.3-1.26l-.04.13h.21l.31.11.19.01.15.15-.08.26-.1.07-.1.02-.36-.26-.48.1-.1-.03-.06-.07-.03-.1v-.18l-.02-.05-.18.17-.07-.02-.04-.08-.02-.17.02-.25.1-.36.17-.07.26.04.29.2.09.13v.1l-.11.15zm1.41-1.1l-.31.01.16-.32.19-.08.36.04-.07.14-.33.22zm-.5.25l-.24.13-.1-.1-.02-.36-.29-.15-.14-.09-.1-.18.02-.05.19-.07.31.32.13.25.24.08.03.04-.03.18zm3.95-7.47l.06.4.14-.1.22.37h.11l.18-.15-.03.36-.19.97-.05.17-.04.3-.04.06-.06.6-.12.19-.1.47-.05.04-.16-.18.16-.71.06-.42-.04-.21-.09-.2h-.24l-.2.09-.04-.12-.01-.15-.05-.05h-.27l-.08-.04-.05-.14-.01-.11.24-.1.23.04.33-.23-.2-.76-.28-.07-.06-.07.05-.13.15-.07.23-.4.14-.06.18.02-.02.39zm.74.13l-.07.07-.27-.58.2-.65.24.02.04.17-.02.16-.13.01v.05l.03.3v.36l-.02.1zm.75-1.69v.07l-.15.48v.18l-.23-.02-.03-.06-.05-.27.03-.3.03-.07.07-.03.07.06.11-.15h.07l.08.12z"
		},
		"GL": {
			"pts":{},
			"map":"M408.47 116.4h.41l.71.62.5.64.38.02 1.82-1.88.05-.54 1.27-.41 1.17-.08.56.16.99.65.98.3.49.28.32.35.34.2.38.06.27-.18.31-1 .16-.75.1-1.12.01-.57c-46.32-.65-91.34-2.44-134.06-4.48l.43 1.46-.05.22-.88-.73-.65-.33-1.38-.26-1.95.07-1.27.47-.43.45-.64 1.4-1.89-.42-2.63.44-.72.23-.27.26-.27.43-.27.58.03.56.36.54.77.69-.1.15-.05.25v.33l.16.3.33.28.48.17.6-.57 1.48-1.66-.05.25-.17.47-.28.67-.04.6.19.54.2.37.2.2 1.18.6 1.34.22 1.52-.11.3.32-.1.18-.27.23-1.15.36-.57.3-1.48 1.5-.24.43.06.32.25.47.74.6.96 1.1.56.43.67.69.47.27 3.68 1.13.42-.1-.5-.83-.55-1.18-.07-.5.24-.21.33-.06.6.6.3.23.23.08.3-.18.63-.75.5-.26.21.04.26.27.28.5.3.32.33.17h.24l.16-.2.63-.05.48-.25.61-.5.42-.44.43-.6.23-.14.23.16.24.45.49.65.33-.1.61-.7.5-.73.42-.15.8.39.5.68.22.1.69-.1 1.1.22 1.33.66.69.06.52.26.87.7 1.95 1.2 1.26 1.11.76.43.5.45.51.62.56.38.6.16.41.3.38.87.37 1.18-.1.38-.89.96.1.36.87.8.2.35.2.46.4 1.09.43.7 1.24 1.01.49.56.33.57.24.56.14.57.18.4.19.25.77.6.74.91-.26.38-.27.04-.58.3-.17.3.17.52-.02.5.07.53-.2.6-.64.25-.48.36-.33.35.1.07.67-.13.83-.28.45-.24.28.01.26.18.2.35.28.92.16.32.15.43.04.18v.16l.2.35.15.62.1.73-.17.09-.2-.08-.17.88-.14.42-.08.36.02.32.31.21.33.32.24.43.08.32.05.43.23-.15.59-.6.31.62.13.68-.03.62-.17.58-.26.39-.4.2-.27.27v.56l.07.44.1.16.24.06.24.2.24.07.23.22.25-.05.18-.2.18-.53.57.46.26.47.1.42-.06.39v.38l.08.38-.03.47-.14.55-.37.65-.34.34-.21.33-.93-.04-.4.46.09.15.4.16.36.6-.23.4-.6-.07-.12.17-.07.7.22.4.73-.18 1.18-1.78.15.13v.22l-.09.28-.27.52-.96 1.43-.38 1.38-.27 1.69-.22.26-.11.42v.57l.2.65.41.71.31.4.78.15.66.3.36.06 1.03-.15.4-.28.2-.01.39-.36.14-.58-.12-.59-.18-.57.15.02.2.12.31-.33.06-.35.12-.35.41-.42.25-.4.05-.39-.15-.74-.32-.68-.2-.26-.25-.48-.1-.45-.06-.52-.1-.4-.12-.32.07-.2.7-.2-.06.1-.3.24-.09.3.33 1.21.14.33.18.23.44.89.13.57.05.58-.01.46.07.26.52-.15.02.28-.31.58-.15.21-.48.4.03.3.07.25.43.34.33.03.7-.57.52-.54.2-.09 1.28.38.31-.06.47-.3.38-.11.02.1-.55.64-2.18.86-.4.38-.12.4-.18.36-.24.15-.08.35.3 1.15.32.08.33-.03.67-.23.33.1.51.36.48.22.75-.07 1.15.1.56.64.44.36-.03.13-.28.12-.38-.04-.73-.32-.34-.04-.34.07.06.16.72.62.27.14.39.42-.07.72-.1.21-.06.47.05.83.41.5.67.62.57.13.18.17-.05.17-.53.27-.2.01-1.3-.57-.32-.06-.71-.53-1.73-1.53-.63-.36-.48-.18-.8-.16-.8.07-.38-.04-.5-.25-.46-.12-.86-.08-.49.26-.26.31-.26.44.08.36.44.72.58.85.34.4.68.26 1.14.3.93.42.72.56.54.5.66.78.22.15 1.83.44.27.15.22-.02.64-.51.24-.05.37.15.47.3.53-.1.49-.2.31.1.09.1-.13.17-.34.23-.1.25.43.89-.02.23-.3.22-.73.35-.24.5-.02.5-.18 1-.04.5-.47 1.07-.05.52.63.02.5-.22.37-.1.22.33.44.15.01.12-.27.26-1.1.16-.82-.09-.1.3-.1 1.17-.26 1.53h.28l.33-.13.62-.46.02.2-.4.83-.35.48-.18.16-.96.39-.4.1-.44-.1-1.45-1.17-.84-.06-.8.36-.4.38-.5 1.5-.33.46-.13.42.26.03.32-.07 1.1-.06.09.24.13.12.9.33.5-.02 1.1-.23.47-.16.44-.7v-.14l.05-.07.45-.17.24-.03.1.27-.1.44-.35.63-.17.18-.06.15-.05.41-.06.2-.17.3-.22.16-.51-.02-.77-.14-1.06-.52-1.26-.44-.42-.1-.3.08-.17.68-.4 1.08-.63 1-.1.5v.38l-.07.35-.26.87.36.09.52-.28 1.22-1.34.23-.11.62-.16.36-.17.56-.14.66.43.45.1.5.2.95-.12.28-.24.98-.14.23.17-.4.28-.38.08v.3l1.47.98.07.22-.26.14-1.32-.93-.75-.22-.6.15-.67-.13-1.32-.64-.36-.07-.43.09-.84.45-.7.75-.53.44-.38.2-.7.57-.02.66-.22 1.37.55 1.06.36.3.32.14.2-.05.4.1.9.08.96-.02.36.08.12.12-.13.15-.16.07-.31-.02-1.21.18-.21.52-.3.23-.55.5-.05.2-.1.26-.27.5-.18.69.03.48-.07.49.1.82.2.1.36-.14.71-.12.34-.17.31-.27.3-.39.39-.4.7-.63 1.67-1.76.48-.4.69-.7.33-.26.16.07-.1.28-.71.77-.44.34-.41.23-.2.2-.1.24-.35.57-.28.25-.38.23-.6.52-1.41 1.32-.94.67-.1.17.13.1.2.32.08.06.39.01-.36 1.4.1 1.2.13.13.44.05.65-.16.58.86h.57l.86-.72.32-.32.4-.58.15-.14.92-.37.69-.05.15.07v.17l-.45.03-1.02.22-.28.3-.7.93-.58.6-.78.52-.12.1-.09.13.1.36.14.35.01.1.52.34.07.62.3 1.74.1.74-.01.55v1.17l.1.44.17.57.21.25.25-.09.21-.3.23-.63.57-1.12.2-.46.1-.51.3-.37.32-.18-.09.5-.14.52.65-.23.27-.2.31-.33.16-.34-.12-.42-.24-1.06-.17-.48-.13-.69.1.03.2.55.11.41.36.82.01.27.08.21.37.57.6-.08.22.16.28.33.08.77.21.5.02.38-.41-.27-.31-.8-.24-.45-.38-.06-.54.1-.45.21-.03.18.06.38-.2-.06-.56-.03-.34.08-.48.63-.36.95-.48.7.07.26.27.4.12.03.15-.04.27-.14.13.01.76-.22.98-.41.66-.52.13-.06-.06.3-.1.24.02.13.25.03.38-.07-.23.28-.68.05-.31.09-.55.28-1.07.33-.74.3.27.64-.24.92.2.73.77 1.28.49 1.1.34.57.24.46.16.24.4.32.08.17.2.16.26.6.05.15.14-.04.69-.9.83-.41-.79.86-.35.57-.26.53.11.26v.61l-.07.28-.1.35.1.04.29.33.3.28.35.24.38.23.34.08.36.24-.31.49-.05.34.06.45.11.1.77-.06.2-.21.2-.32.23-.08.32.03.5.17-.6.24-.08.14-.16.13-.51.32-.19.29.05.3.16.4-.02.14.13.22.2.14-.08.32-.2.24.24.24.43.15.18.55.06.45.12.43.9.17.1.08.18.05.19.22v.09l.14.19-.02.77.53-.05.13.08.8-.1.25.1-.38.3-.83.52-.1.28.17.21.2.15.26.12.52-.02.27-.02-.16-.4-.02-.17.24.01.36-.11.31.02.27.24.4.1.28-.16.4-.05.3.02.18-.25.24-.25.38-.33.8-.34.8-.43.1-.19-.01-.27.1-.17.19-.07.06.21-.08.5-.15.38-.24.33-.34 1.1.27.92.2.1.1.1.67.22.3.13.44.28.14.13.27-.05.56-.3.9-.89.04.05-.31.7-.34.42-.3.23-.33.2-.46.05.02.43-.05.52 1.57.85.56.19.22-.07.16-.37.36-.6.34-.4.14.17-.16.36-.48.66-.13.26.1.51.09.13.15-.01.17.04.3-.13.27-.04-.11.26-.03.25.58.1.33-.18.22-.02.14-.05-.2-.25-.57-.5-.05-.17.8.37.14.12.82.05.24-.35.31-.39-.12-1.13v-.2l.03-.19-.16-.32-.23-.3-.66-.16-.37-.17-.46-.11-.3-.26.04-.15h.37l.54.1.7.32.43.07.08-.05.32-.04.91-1.38.2-1.7.42-1.72.21-1 .2-.48.06-.37-.73-.21.16-.23.46-.1.31.01.4-.5-.13-.57.03-.35-.26-.28-.23-.55.2-.81.04-.35.1-.3-.13-.41.22-.28.04-.34-.88-.18-.57-.24-.5-.23-.25-.27.26-.04.3.09.89-.07.3.1.71.08.23-.24.19-.02.51-.94.23-.15.02-.34-.83-.49-.44-.4-.14-.2-.1-.36.24.12.2.18.48.55.6.04.5-.03.17.04.32-.42.21-.48.25-.4-.08-.22-.04-.25.26-.39.02-.63.4.04.36-.16.02-.58.6-.62-.02-.23-.25-1.04.1-1.3-.58-.2-.4.06-.17.21-.4-.36-1.13-.77 1.12.1.27.1.26.2.57.09.26-.29-.03-.4.61-.1.56-.5.27-.37-.08-.36-.19-.39-.43-.5-.24-.99-.38-.59-.48.25-.38.06-.17-.78-.17-.31.01-.43.57.12.59-.17 1.15.4.63-.36.25-.26.48-.75.31-.22.2-.35-.21-.19-1.49-1.03.05-.22h.6l1.52-.2.9-.17 1.25-.09 1.21-.59v-.67l-.04-.19-.63-.56-.21-.6.34.18.72.54.18-.47.29-1.15.28-.43.32-.4-.66-.42-.46-.44.29-.09.66.1.68.25.78.17.03.13-.57.76-.85 1.48-.1.47.08.36-.13.29-.44.7.13.52.56.27.25-.26.41.02.3-.19.22-.43.04-.47.23.01.47-.56.1.2.27.4.3.07.3-.16.14.04.08-.15.28-.87.04-.23-.01-.23.38.33-.03.2.06.67.25-.23.68-.82.63-.5.25-.3.27-.25-.35-1.27-.15-.24-.07-.2-.07-.13-.02-.25.45.47.12.21.7.57.33-.05.29.13.31-.2 1.23-1.08.16-.25.14-.37.14-.48.14-.26.31-.04.12.07.2-.2.27-.5.61-1.53.76-1.65.22-.6.09-.44-.06-.26.04-.16.13-.07.3-.4.15-.32.38-1.03.14-.22.17-.16.36-.16 1.3-1.25.23-.08.26-.3.3-.5.03-.54-.26-.56-.33-.56.04-.09h.2l.16-.08.12-.16-.04-.26-.2-.35-.13-.37-.04-.37.53.4 1.1 1.16.9.76.7.36.52.14.36-.09.66-.33.02-.34-.3-.46-.02-.2 1.12.43.34-.04.4-.55.24-.2.27-.1.43.01.8.16.5-.07.44-.24.65-.22 1.36-.65.66-.25.77-.1 1.62-.7.52-.13.74-.4.45-.14.47-.02.4-.2.3-.38.26-.23.5-.27.73-.56.2-.3.05-.2.07-.52.1-.19.76-.36.5-.57.03-.21-.3-.54.16-.09.73-.16.36-.2.8-.7.44-.25.2-.32-.01-.38-.08-.28-.12-.18.14-.04.85.25.24-.06.32-.18.09-.3-.16-.44-.14-.3-.14-.14.15-.06.72.02.88-.4.52-.02.1-.1-.21-.62.15-.15.6-.18.26-.18.3-.07.5-.26.42-.38.15-.28.08-.33-.22-.15-2.47.1-1.38-.2-1.03-.35-1.97-.94-2.18-.48-.26.06-1.48.83-.72.2-.94-.17-.77.34-.32.49-.36.84-.3.37-.69-.3.2-.78.64-.76.34-.31.37-.21.84-.31.54-.32.19-.33-.16-.33-.16-.22-.15-.09h-.2l-2.35.56-1.17.04-1.46-.62h-.26l-.89.25-.33.02.1-.14 1.4-.72.32-.22.76-.68.2-.37.13-.48.13-.7-.04-.48-.34-.24-.49-.22-.3-.37.27-.11 1.15.04.56.07.98.35.75.07.97-.05.4-.15 1.15-.7.4-.37.76-.77.2-.7-.08-.9-.16-.63-.24-.35-.64-.16-1.06.04-.79-.06-1.02-.28-.16-.61.21-.22.22-.03.9.41 1.32-.05.9.15.64.37.59.52.53.66.61.53.7.42.61.54.52.66.3.86.11 1.05.27 1.12.44 1.2.5.78 1.3.87.37.07.7-.07.7.11.22-.47.15-1.9.06-.37.02-.36.25-.44.04 1.78.06.3v.35l.05.48v.42l.87-.08.35.24.89-.2.28-.49-.14-.53-.14-1.8-.14-.44.02-.5-.07-1.51.05-.98-.07-1.14-.15-1.23-.58-.26-.58.49-.18.02-.18.15-.13.52-.2 1.08-.17-1.17-.03-.64-.03-.38.1-.21.43-.35.83-1.1.15-.5-.85-.07-.3-.15-.35-1.28-.18-.13-.85-.38-.24-.26-.94-.73-.82-.53-.59-.56-1.23-1-.49-.34-.43-.66-.26-.16-.5.43-.76.4-.23-.42.2-.25.82-.5.38-.3.14-.7-.34-2.68-.05-.2-.07-.11-.47.11-.7.44-.34.3-.92.13-1.14.7-.3.26-.52.2-.23-.04-.5-.35 1.25-.75.35.01.61-.5 1.68-.72.24-.53.5-.32.56-.3.44.07.23 1.1.52 2.2.8 1.76.6.42.5.56 1.3.6 1.4.94.58.6.57.35.15-.92-.12-1.14.57-.5.2-2.18-.05-.8-.04-1.86-.44-.44-.7-.2-1.13-.93-.4-.84-.68-.2-.59-.64-.7-.56-.53-.79-.65-.1-1.26-.14-1.31.26-.59.34-.36.83-1.75.74-.48.05-.64.21-.9.49-.88-.16-.33.05-.44.61h-.18l-.2-.2-.13-.22-.08-.25.24-.2.58-.17.56-.02.56.11.37-.04.2-.2.32-.54-.18-.3-1.57-.91-.28-.6.82.54.58.3 1 .35.66.52.3.06.9-.24.2-.14.6-.95.39-.4.8-.53.64-.25.04-.28-.36-.4-1.03-1.57-.41-.54-.28-.47.02-.1.47.38.68.8.56.8.34.34.3.15.3-.03.32-.23.31-.43.51-.91 1.1 2.18 1.47 1.42.69.5 1.78.75.45-.01.86-.85.9-.72.62-.24 1.92-.07.35-.29.17-1.57.31-1.65-.08-.29-1.82-.93-.77-.21-1.92-.09-.4-.2-.38-.4-.18-.33.02-.28.1-.34.2-.42.07-.4-.07-.41-.13-.28-.19-.14.03-.17.4-.28.57-.62.15-.5-.18-1.34.11.02.5.86-.19 1.3-.34 1.16 1.04.82 1.26.54 1.32-.27 1.17-.69-.07-.8h.58l1.12.26.5-.12.27-.15.15-.23.12-.37.08-.6.05-.81-.18-.7-.39-.57-.3-.25-.74-2.4-.51-1.31-.64-.48-.56.48-.32 1.4-.22 1.22-.7.97-.5-.19v-.16l.2-.21.22-.48.27-.75.02-.91-.2-1.08-.2-.66-.15-.22-.2-.06-.23.12-.88.77-.4.27-.27.08-.24-.08-.34-.34-.53-.68-.38-.57 1.04.86.58.17.67-.44.45-.74.43-.17.52-.09 1.17-1.71.8.07.47.58.37.54.27.52.34.08.41-.33.28-.54.14-.75.03-.97-.1-1.19-.08-.8-.09-.42-.05-.46-.02-.5-.06-.76-.16-.43-.67-1.16-.42-1.14.27-1.43-.67-1.14-.5-.16-.42.02-.36-.1-.61-.42-.29-.34-.83.43-.64.04-.2-.1-.23-.25-.52-1.26-.33-2.05-.35-.18-.81-.16-.23-.13-.19-.15-.45-.67v-.28l.14-.3.63-.79z"
		},
		"IE": {
			"pts":{},
			"map":"M450.5 275.4l-.45.3-.06.12-.13.48-.02.13-.14.25-.13.28-.16.1-.23.09-.13.08-.17-.04h-.2l-.11.1v.07l.07.08.18.13.2.11-.02.1-.1.12-.7.28-.2.17-.08.11.08.19.55.56.1.06.08.33.49.13.2.2.17.05.38-.02.15.08.08-.06.05-.1.32-.28.1-.12-.06-.17-.07-.12.2-.26.22-.25h.12l.2.16.16.22.02.16.04.12.15.26.1.09.27.05.06.1-.05.38.05.12h.28l.3-.02h.1l.11-.07.17-.08.23.03.12.16.05.17-.2.07-.21-.04-.1.11-.01.22.07.28.14.2.11.44.1.49.15.3.03.36-.02.18.02.33-.06.11.04.3.18.63.07.35.05.75-.12.29-.17.27-.1.31-.08.34-.05.55-.36.65-.15.16-.18.1.39.44-.32.2-.34.06-.37-.1h-.24l-.22.15-.08.09-.07-.04-.14-.37-.1.38-.22.12-.38-.03-.62.1-.24.11-.1.17-.07.2-.1.1-.11.07-.48.14-.1.06-.22.31-.3.18-.24.06-.21-.18-.1-.11-.1-.06-.33.01.1.06.07.13.04.24-.04.24-.17.12-.19.03-.3.25-.41.06-.22.23-1.35.39h-.07l-.19-.1-.2-.04-.2.03-.56.21-.27-.04.35-.53.47-.28.04-.07-.15-.04-.89.2-.3.15-.31.05.14-.25.4-.33.21-.16.13-.06.15-.2.42-.23-1.35.47-.36-.06-.08-.13-.28.06-.1-.31.41-.48.24-.2.28-.11.27-.16.1-.2-.13-.06-.81.05-.4-.04.03-.15.07-.18.4-.29.22-.04.2.02.19.08.15.1.46-.06-.2-.19-.02-.38-.15-.13.19-.17.21-.11.36-.37.13-.06.71-.09.77-.19.75-.27-.39-.14-.18-.2-.3.4-.22.15-.6.08-.2-.04-.27-.13-.08.05-.08.1-.4.19-.43.04.5-.35.62-.61.14-.2.2-.33-.07-.15-.12-.08.45-.7.16-.12.29-.02.2-.11h.1l.09-.05.19-.2-.3-.14-.29-.06-.92.07-.12-.02-.11-.06-.08-.1-.05-.23-.07-.05h-.2l-.2.07h-.15l-.14-.11.22-.24-.29-.06-.29.04-.24-.07v-.15l.1-.15-.14-.15-.03-.18.15-.1.17.04.34-.14.44-.06-.38-.14-.15-.11v-.18l.03-.15.43-.25.47-.12-.04-.16.04-.19-.48-.05-.46.13.05-.35.11-.31.02-.21-.02-.22-.22.1-.02-.32-.1-.22-.32.15.01-.28.1-.2.16-.09.17.04h.31l.3-.16.43-.03.69.04.47.43.12-.08.19-.27.09-.02.71.11.44.16.12-.05-.06-.3-.16-.2.2-.27.22-.19.16-.09.36-.11.15-.11.1-.35.17-.29-.9.15-.85-.35.13-.24.18-.14.32-.1.03-.13.15-.1.26-.28-.1-.37.06-.27.19-.17.05-.25.09-.19.38-.06.36-.18.14.02.43-.04.15.07-.04-.3.27-.04.1.06.05.21.12.14.04.24-.09.18-.13.15.12.14-.19.26.2-.1.3-.26-.01-.21-.05-.27-.09-.24.04-.26.16-.16.44-.09-.18-.3.16-.02.17.06.26.23.26.19.28.14-.27.29-.32.2-.13.21zm-7.6 5.62l-.01.14-.2-.17-.1-.19-.57-.08.23-.19.12.06h.4l.1.08.03.35z"
		},
		"IM": {
			"pts":{},
			"map":"M458.3 279.74l-.57.6-.23-.11-.2.06-.05-.02.12-.22.13-.5.23-.2.3-.52.23-.15.08.03.05.04.1.6-.15.2-.05.19z"
		},
		"IS": {
			"pts":{},
			"map":"M427.35 211.56l.32.03.52-.24.22-.15.53-.54.32-.15.49.04.23-.04v.05l-.3.22-.23.07-.35.33-.33.73-.24.36v.16l.3.28.32.16.3-.14.13.05.12.21.06.2.02.21-.06.43-.18.43-.24.36.04.11.19.06.92-.23.1.02.05.11.01.22.05.19.1.17-.03.18-.4.56.47-.35.38-.1.64.17.27.2.15.36.22-.12.1.01.15.2v.22l-.1.3-.04.29-.11.11-.21.09-.06.1.1.2.13.22h.19l.03.1v.12l-.02.14-.06.09-.1.05-.13.15.48.33.06.12v.18l-.03.2-.08.2-.15.13-.35.02-.21.14.07.23v.28l-.07.34-.27.52-.26.27-.26.17-.44-.06-.25-.13.03.44-.25.27.05.22.08.12-.04.29-.12.28-.2.31-.22.2-.45.23-.38.38-.27.16-.65-.01-.66.25-.94.52-.64.41-.49.47-.64.77-.48.32-.27.09-.54.06-.45.21-1.5.39-.5.2-.07.2-.21.29-.01.1.09.08.02.1-.19.35-.37.24h-.17l-.22-.21h-.09l-.04.04v.06l.12.25-.22.12-.98.3-1.66-.22-.65-.23-.81-.36-.49-.1-.68-.02-.56-.5-.27-.32-.02-.13.03-.15.06-.1.09-.06h.19l.02-.05-.14-.25-.14.08-.36.35h-.16l-.22-.19v-.17l-.42-.07-.35-.21-.36-.32-.06-.12.18-.17-.04-.03-.13-.03-.26.05-.4.4-.16.1-2.57.08-.65.04-.12.06-.12-.25-.1-.58-.04-.38.03-.18.09-.22.14.04.13.17.12.25.14.12.9-.3.36-.2.16-.2.18-.33.2-.17.08-.16.19-.5.12-.24.15-.18.17-.11.4-.08-.26-.12h-.25l-.85.54h-.28l.01-.09.12-.15.3-.26-.2-.02-.08-.12v-.25l.14-.4.69-.54.23-.08.08-.1-.1-.1-.14-.04-.69.55-.5.19-.16-.04-.26-.21-.08-.1-.11-.24.01-.15.24-.43-.04-.09-.16-.04-.45-.4-.7.04-1.74-.23-.36.1-.6.34-.36.11-.16-.07-.15-.18-.13-.25-.13-.3.06-.22.22-.13.17-.06.48.08.58-.22.37-.04.1-.04.22-.23.1-.06.17.08.08.16.58-.24.2-.13.02-.07.1-.09.28.13h.24l.29-.08.51-.04 1.16-.02.17-.2.09-.18.1-.45-.05-.1-.72.42h-.17l-.83-.22-.3-.25.1-.2.44-.43.46-.35.67-.37.16-.15.01-.17-.44-.3-.85.08-.22-.37-.71-.22-.47.14-.25-.22-.6.3-1.35.45-.53.3-.29.1-.33-.24-.57-.28-.64-.1-.06-.16.37-.5.26-.1.26.05.5.35.33.11-.43-.52.02-.2-.04-.3-.13-.13-.13-.34.05-.11.17-.04.35.11.8.58.4-.1.23-.22.3-.15-.08-.09h-.71l-.38-.13-.18-.17-.17-.29.06-.13.2-.1.6.03-.4-.51-.27-.3-.03-.13.02-.18.03-.12.06-.06.69.3.15.01-.14-.19-.3-.28-.02-.1.13-.1.06-.15V212l.22-.11h.2l.22.1.66.55.1.15.02.2-.03.26.03.1.26-.09.2.1.1-.02.27-.38.17.1.1.17.04.16.02.22-.05.46.02.06.18-.26.3-.02.04-.13v-.48l-.01-.4-.04-.1-1-.56-.18-.13-.22-.28.05-.14.2-.13.29-.05h.68l.07-.05-.13-.15-.32-.1-.07-.08-.04-.16-.37.09h-.42l-.4-.1-.01-.13.16-.19.32-.31.16-.08.46.06.45-.1.37.12.3.3.42.55.56.34.05.11.3.28.6.76.61.44.02.11-.1.13-.23.16.06.08.3.11.22.3.02.13-.2.9-.1.2-.13.1-.56-.17.14.3.4.3.09.17-.06.17.04.04.15-.1.06.1-.02.28-.07.23-.1.19.03.08.16-.02.14.04.23.26.19.77.1.25.06-.22.08-.57.08-.28.07-.02.07-.1.05-.17.1-.63.38-.48.18-.15.18-.03.08.06.28.5.17.09.08-.03.13-.34.15-.65.03-.74-.08-.81.05-.59.18-.35.23-.1.3.13.2.21.43.82.34.42.29.45.15.15.29.08.07-.03.06-.1.02-.19-.06-1.16.08-.36.12-.26.53-.15.28-.16.27-.27.23-.14.18-.02.2.1.2.23.3.44.4.73.49.54.26.86.05.15.06.02.07-.12.04-.15.01-.39-.14-.5-.46-1.29v-.24l.05-.2.33-.02.76.12.24.2.51.79.15.19.09.04.03-.1.2-.14.14-.17.23-.44.5-.78.1-.02.15.06.26.2.13.17.24.12.25-.04.34-.27.4-.17.13-.4.02-.17-.31-1.17.13-.24.67-.29.6-.02.14.08.37.57.26.29.13.23.03.5.15.18.28.21z"
		},
		"SJ": {
			"pts":{},
			"map":"M445.67 176.44l-.26.05-.15-.19.38-.51 1.23-.98.5-.94.95-.32.06.52-.07.65-.84.5-.92.36-.88.86zm78.32-33.14l-.34.4-.5-.6-.34-.79.18-.3.9-.03.22.4.03.23-.15.69zm6.64-50.44l.38.33.83-.06.45 2.35.26 2.47.42.17.79-.33.7-.17.37.19.64.7.28.5-.24.4-.6.44-.1 1.3.6.44.99 1.1.55.14.99-.45.93.85.91 1.02-2.14 1.28-.19.36-.3.94-.31.78-.3.45-.64.78-.35.27-.77-.06-.3.3-.26.63-.27.45-.7.12-.34-.63.11-.19.05-.37-.12-.88.66-.9.14-.5-.13-.2-.18.06-.48-.28-.14.02-.4.53-.54.35-.56.1-2.24.67-.34-.23-.15-1.36.9-.7.15-1.2.23-.79.26-.53.5-1.37.12-.1-1.23-1.1-.49-.71-.52-1.44-.17-1.18-.72-1 .1-1.3-.53.1-.4-.9.38-.52 1.9-.59 1.13-.57.43.02zm14.64-.75l-.4.04-.75-1.05-.15-.91.14-.38.36-.01.56 1.25.6.37-.36.7zm-43.44.54l.03.97.46-.1.53 1.03.58.54.17.37.12.48.35.95.17 1-.42.1-.58-1.42-.47-.82-.6-.7-.48-.03-.22-.3-.78-2.55-.14-.59-.44-.96-.2-1.2v-.93l.6.22.52.6.45 1.32.08.41-.2.55.2.64.27.42zm49.48-4.3l.83.1.83-.23.15.24-1.08.76-1.19-.4-1.07-.1-1.27.83-.42-.33.65-.81.7-.27.11-.5.27-.08.93-.06.56.85zM517.22 73.3l.15.03.14-.17.1-.44.12-.25.7.29 1 .89.3.44.4.9.35 1.49-.27 1.07-.36 1.01-.12.56.13.79-.05.77-.13.68.53-.78 1.15-2.5.17-.15.17.09.52.51.46 1.28.1.42.09.51.05.64-.03.72-.04.5-.24.33-.12.3.26.01.3.39.27.82.31.33 1.12-.28.72.43.4 1.33.61-.3v-.71l.14-.3.82.23.42.34.44.7-.74 1.13.6 1.08 1.03.78.62.81.11.34.1.45-.4.59-.4.32-1.04.06-.94.41-1.72.3-.25.18-.07.16-.1.5-.66 1.15-.64 1.4-.26.83-.2 1.15-.07.7.14.69-.04.68-.48.54-.3.02-.39-.1-.37.3-.03.46.02.65-.1 1.96-.1 1.46-.19 1.35-.2.72-.25.2-.8.13-.63 1.24-.5 2.2-.26.86-.55 1.35.1.47.18.51-.3.92-.46 1.02v.39l.16.71.08.74-.36.64-.65.32-.66-.36-.33-.43-.3-.68-.31-.45-.33-.27-1.27-1.53-1.18-2.45-1.07-.96-.7-.46-.34-.45-.33-.6-.28-.68-.27-.86-.12-.53-.03-.8.09-.48.12-.25.86-.2.3.12.3.42.28.17.63-2.12 3.57-1.23 1.15-.21h1.15l-.18-.57-.15-.74-.17-.18-.87.41-1.34.44h-.64l-.67-.3-.67.17-.7.63-.69.4-.67.16-1.43-.06-.36-.33-.47-.76-.12-.39-.1-.48-.1-1.45.11-.4.14-.22.15-.14.32-.01.3.25.73.83-.17-.9 2.08-1.07.96-.94.5-.16.5.07-.12-.51v-.47l.35-.39.26-.16.76-.19 1.74.03.63-.26.47-.66-.5.23-.5.05-.24-.14-.53-.58-.24-.76.69-1.53.24-.72-.7.1-.23.26-.8 1.4-.6.64-.73.3-.73-.03-.16-.2-.23-.93-.07-.49.03-.27.23-.77.12-.82-.02-.71-.17-.15-.27.7-.24.96-.34.49-.35-.14-.14-.37-.13-.56-.14-.22h-.15l-.3.23-.32.41.1.64.04.7-.14.56-.1.67.32.43.25.65-.39.31-.37.45-.35.69-.36.53-.56.06-.7.3-1.4.1-.66-.87-.12-.41-.13-.28-.44-.46-.65-1.36-.49-1.56-.33-.16-.49-.52-.27-.44-.25-.6-.08-.71.03-.65.3-.29-.7-.73-.69-.98.25-.32.26-.15 2.02 1.14.14-.14.22-.57-.08-.19-.34-.13h-.46l-.12-.11-.18-.62-.15-.76-.06-.5-.03-.6.34-.9.2-.81-.3-.38-.83.02-.28.12.1 1.16-.26.8-.5.62-.37-.3-.28-1.53-.37-1.07-.13-.68-.1-.99-.15-.72-.28-.87-.03-.54.03-.4.2-.91-.15-.77-.19-.67-.01-.39.18-.48.16-.15.17.03.51.57.28.67.1-.05.18-1 .26-.24 1-.33 1.1 1.3.3.29.22.1-.11-.58-.07-.75.16-.28.9.67.42-.05.98-.87 1.63-.47.62.7.03.37-.02.5-.04.14-.35.58-2.06.47-1.35 1.78 1.84-.28.33.2.14 1.44.14.15.47.2.32.43.32.81.35.54.2-.06.07-.6-.08-.69-.04-.8.02-.87.05-.72.4-.5.55-1.67.6-1.14.66.51.61 1.42.56 2 .53 2.11.6 2.58.3.9.25.21 1.22 2.62.13.08-.25-2-.63-3.42-.42-2.68-.1-1.03-.07-1.47.03-.42.05-.39.31-1.59.4-.78-.12-1.1.1-.85.43-.68.4-.05.37.51.72 1.82zm43.76-3.4l-2.64.6-.26-.42 4.27-1.8.22-.17.8-.22.67.4-.2.32-2.86 1.29zm-38.32-2.98l-.6.91-1.01-.7.12-.72.24-.44.63.17.62.78zm6 .84l.27.19 1.53-.07.3.4.11.97.24.33.32.1.81 1.18.28.17.24-.65.18-1.64.01-1.93-.07-.95.09-.61.27-.24.34.06.33-.34.3-.6.3-.08.68.46.18.35-.18.74-.07 1.05-.3 2.15.66.13.93-.45.23-.62.5-1 .53.16.25-.13.13-.43.05-.52.3.09.4 1 .18.15.34-.26h.14l.34.4 1.57.72.54.38.23.36.24.2h1.67l1.18.25.43.57.36 1.06.15 2.44-.33.66-2.4 2.94-.59.93-.3.86-.48 1.85-.23.56-1.12.87-.26.1-.84-.43-.26.04-1.02.94-.35.57-.35.72-.51.31-.53-.17-2.38-.37-.31-.5-.26-.97.47-1.25-2.65.47-2.92-.26-.15-.17-.13-.49-1-.33-.76-.4-.63-.67-.63-.88.2-.41.2-.25.54-.1.48.12h.86l.2-.9.33-.26.27-.64-.9-.41-.93-.06-.63.54-.72.24-.66.03-1.28-.15-.6-.38-.82-1-.3-.56-.1-.44-.09-.66.95-.6.36-.47.36-.65-1.42-.37-.6-.54-.59-.8.48-.46 1.92-.37.5.3.51.6.56.36.54-.76-.51-.36-.46-1.28-.09-.63.06-.5.24-.07.18.22.67 1.2.5.37.15-1.1.02-.54-.1-.44-.23-.81-.21-1 .33-.26.32.1.7.7.72.48.32.49.6 1.2.57.81z"
		}
	}
}
